<svg id="facebook" xmlns="http://www.w3.org/2000/svg" xmlns:xlink="http://www.w3.org/1999/xlink" width="50" height="50" viewBox="0 0 50 50">
  <defs>
    <linearGradient id="linear-gradient" x1="0.15" y1="0.15" x2="0.915" y2="0.915" gradientUnits="objectBoundingBox">
      <stop offset="0" stop-color="#2aa4f4"/>
      <stop offset="1" stop-color="#007ad9"/>
    </linearGradient>
  </defs>
  <path id="Path_18364" data-name="Path 18364" d="M29,4A25,25,0,1,0,54,29,25,25,0,0,0,29,4Z" transform="translate(-4 -4)" fill="url(#linear-gradient)"/>
  <path id="Path_18365" data-name="Path 18365" d="M29.339,33.525h6.456l1.014-6.558h-7.47V23.383c0-2.724.891-5.14,3.439-5.14h4.095V12.521a34.8,34.8,0,0,0-5.116-.309c-6,0-9.524,3.17-9.524,10.394v4.363H16.06v6.558h6.171V51.551a25.23,25.23,0,0,0,3.732.307,25.094,25.094,0,0,0,3.376-.254Z" transform="translate(-0.961 -1.858)" fill="#fff"/>
</svg>
