<svg id="play-button" xmlns="http://www.w3.org/2000/svg" width="161.365" height="161.365" viewBox="0 0 161.365 161.365">
  <g id="Group_12483" data-name="Group 12483" transform="translate(0 0)">
    <path id="Path_14314" data-name="Path 14314" d="M41.765,0A41.765,41.765,0,1,0,83.529,41.765,41.765,41.765,0,0,0,41.765,0Z" transform="translate(38.918 38.918)" fill="#fff"/>
    <path id="Path_14315" data-name="Path 14315" d="M80.683,0a80.683,80.683,0,1,0,80.683,80.683A80.683,80.683,0,0,0,80.683,0Zm33.979,83.253a5.763,5.763,0,0,1-2.587,2.587v.029l-46.1,23.052a5.763,5.763,0,0,1-8.339-5.187v-46.1a5.763,5.763,0,0,1,8.339-5.158l46.1,23.052A5.763,5.763,0,0,1,114.661,83.253Z" fill="#ffb60c"/>
  </g>
</svg>
