<svg xmlns="http://www.w3.org/2000/svg" width="90.016" height="90.196" viewBox="0 0 90.016 90.196">
  <g id="bus" transform="translate(-0.496)">
    <g id="Group_14110" data-name="Group 14110" transform="translate(14.761 80.959)">
      <path id="Path_18315" data-name="Path 18315" d="M79.019,445.642v6.418a2.82,2.82,0,0,0,2.819,2.819h8.989a2.82,2.82,0,0,0,2.819-2.819v-6.418Z" transform="translate(-79.019 -445.642)" fill="#454545"/>
      <path id="Path_18316" data-name="Path 18316" d="M336.958,445.642v6.418a2.82,2.82,0,0,0,2.819,2.819h8.989a2.82,2.82,0,0,0,2.819-2.819v-6.418Z" transform="translate(-290.098 -445.642)" fill="#454545"/>
    </g>
    <path id="Path_18317" data-name="Path 18317" d="M453.693,100.208a1.462,1.462,0,0,1-1.463-1.463,1.877,1.877,0,0,0-1.874-1.874h-1.607a1.463,1.463,0,1,1,0-2.926h1.607a4.805,4.805,0,0,1,4.8,4.8A1.464,1.464,0,0,1,453.693,100.208Z" transform="translate(-365.622 -76.878)" fill="#cacaca"/>
    <rect id="Rectangle_17678" data-name="Rectangle 17678" width="5.868" height="15.846" transform="translate(84.643 21.608)" fill="#6f6f6f"/>
    <path id="Path_18318" data-name="Path 18318" d="M7.344,100.208a1.462,1.462,0,0,0,1.463-1.463,1.876,1.876,0,0,1,1.874-1.874h1.607a1.463,1.463,0,1,0,0-2.926H10.681a4.805,4.805,0,0,0-4.8,4.8A1.464,1.464,0,0,0,7.344,100.208Z" transform="translate(-4.407 -76.878)" fill="#cacaca"/>
    <rect id="Rectangle_17679" data-name="Rectangle 17679" width="5.868" height="15.846" transform="translate(0.496 21.608)" fill="#6f6f6f"/>
    <path id="Path_18319" data-name="Path 18319" d="M110.518,0H46.411a5.637,5.637,0,0,0-5.637,5.637v50.7h75.381V5.637A5.636,5.636,0,0,0,110.518,0Z" transform="translate(-32.961)" fill="#86daf1"/>
    <path id="Path_18320" data-name="Path 18320" d="M40.774,411.85v1.55a5.639,5.639,0,0,0,5.637,5.637h64.107a5.638,5.638,0,0,0,5.637-5.637v-1.55Z" transform="translate(-32.961 -337.03)" fill="#ed6262"/>
    <rect id="Rectangle_17680" data-name="Rectangle 17680" width="75.381" height="8.092" transform="translate(7.813 66.717)" fill="#cd484b"/>
    <rect id="Rectangle_17681" data-name="Rectangle 17681" width="75.381" height="12.199" transform="translate(7.813 54.529)" fill="#f3f3f3"/>
    <rect id="Rectangle_17682" data-name="Rectangle 17682" width="75.381" height="35.224" transform="translate(7.813 15.781)" fill="#6f6f6f"/>
    <rect id="Rectangle_17683" data-name="Rectangle 17683" width="4.025" height="35.224" transform="translate(43.491 15.781)" fill="#454545"/>
    <rect id="Rectangle_17684" data-name="Rectangle 17684" width="75.381" height="3.523" transform="translate(7.813 51.006)" fill="#86daf1"/>
    <circle id="Ellipse_1336" data-name="Ellipse 1336" cx="2.204" cy="2.204" r="2.204" transform="translate(13.732 68.569)" fill="#f3f3f3"/>
    <g id="Group_14111" data-name="Group 14111" transform="translate(19.341 68.569)">
      <circle id="Ellipse_1337" data-name="Ellipse 1337" cx="2.204" cy="2.204" r="2.204" fill="#ffe21f"/>
      <circle id="Ellipse_1338" data-name="Ellipse 1338" cx="2.204" cy="2.204" r="2.204" transform="translate(47.916)" fill="#ffe21f"/>
    </g>
    <circle id="Ellipse_1339" data-name="Ellipse 1339" cx="2.204" cy="2.204" r="2.204" transform="translate(72.861 68.569)" fill="#f3f3f3"/>
    <g id="Group_14112" data-name="Group 14112" transform="translate(12.379 57.565)">
      <path id="Path_18321" data-name="Path 18321" d="M373.1,316.866h-5.4a3.062,3.062,0,1,0,0,6.125h5.4a3.062,3.062,0,1,0,0-6.125Z" transform="translate(-310.367 -316.866)" fill="#ffbd49"/>
      <path id="Path_18322" data-name="Path 18322" d="M74.375,316.866h-5.4a3.062,3.062,0,1,0,0,6.125h5.4a3.062,3.062,0,0,0,0-6.125Z" transform="translate(-65.908 -316.866)" fill="#ffbd49"/>
    </g>
    <path id="Path_18323" data-name="Path 18323" d="M141.361,13.545H96.813a5.43,5.43,0,0,0,0,10.86h44.548a5.43,5.43,0,0,0,0-10.86Z" transform="translate(-74.376 -11.084)" fill="#454545"/>
    <path id="Path_18324" data-name="Path 18324" d="M116.155,86.869H40.774v17.07a3.112,3.112,0,0,0,2.875,3.148A2.976,2.976,0,0,0,46.8,104.11V98.589a2.531,2.531,0,0,1,2.669-2.5h.068a2.551,2.551,0,0,1,2.669,2.5v6.1a3.113,3.113,0,0,0,2.8,3.182,3.025,3.025,0,0,0,3.165-2.931V96.79a3.008,3.008,0,0,1,3.157-3,3.116,3.116,0,0,1,2.83,3.157v7.785a3.121,3.121,0,0,0,2.824,3.058,3.006,3.006,0,0,0,3.148-3.01l.034-6.632a3.008,3.008,0,0,1,3.148-3.013,3.141,3.141,0,0,1,2.841,3.182v7.179a2.994,2.994,0,0,0,5.987-.1V96.839a2.516,2.516,0,0,1,2.737-2.5A2.385,2.385,0,0,1,87.411,96.7v8.368a3.115,3.115,0,0,0,2.807,3.182,3.035,3.035,0,0,0,3.182-3.01V99a2.507,2.507,0,0,1,2.7-2.5,2.666,2.666,0,0,1,2.669,2.635v4.8a3.108,3.108,0,0,0,2.841,3.148,3,3,0,0,0,3.182-2.976V98.595a2.522,2.522,0,0,1,2.635-2.5h.1a2.522,2.522,0,0,1,2.635,2.5v6.1a3.141,3.141,0,0,0,2.841,3.182,3.008,3.008,0,0,0,3.148-3.013v-18Z" transform="translate(-32.961 -71.088)" fill="#fff" opacity="0.1"/>
  </g>
</svg>
